{
  "fetchPipMetadata": {
    "sources": {
      "annotated-types": {
        "is_direct": false,
        "sha256": "1f02e8b43a8fbbc3f3e0d4f0f4bfc8131bcb4eebe8849b8e5c773f3a1c582a53",
        "type": "url",
        "url": "https://files.pythonhosted.org/packages/78/b6/6307fbef88d9b5ee7421e68d78a9f162e0da4900bc5f5793f6d3d0e34fb8/annotated_types-0.7.0-py3-none-any.whl",
        "version": "0.7.0"
      },
      "appdirs": {
        "is_direct": false,
        "sha256": "a841dacd6b99318a741b166adb07e19ee71a274450e68237b4650ca1055ab128",
        "type": "url",
        "url": "https://files.pythonhosted.org/packages/3b/00/2344469e2084fb287c2e0b57b72910309874c3245463acd6cf5e3db69324/appdirs-1.4.4-py2.py3-none-any.whl",
        "version": "1.4.4"
      },
      "astroid": {
        "is_direct": false,
        "sha256": "187ccc0c248bfbba564826c26f070494f7bc964fd286b6d9fff4420e55de828c",
        "type": "url",
        "url": "https://files.pythonhosted.org/packages/07/28/0bc8a17d6cd4cc3c79ae41b7105a2b9a327c110e5ddd37a8a27b29a5c8a2/astroid-3.3.8-py3-none-any.whl",
        "version": "3.3.8"
      },
      "attrs": {
        "is_direct": false,
        "sha256": "c75a69e28a550a7e93789579c22aa26b0f5b83b75dc4e08fe092980051e1090a",
        "type": "url",
        "url": "https://files.pythonhosted.org/packages/fc/30/d4986a882011f9df997a55e6becd864812ccfcd821d64aac8570ee39f719/attrs-25.1.0-py3-none-any.whl",
        "version": "25.1.0"
      },
      "beartype": {
        "is_direct": false,
        "sha256": "090d10e3540b3fca209a0ab5f1c15f9652a075da0a7249c2e6713011e9e5f6ef",
        "type": "url",
        "url": "https://files.pythonhosted.org/packages/61/ce/9cf60b72e3fbd36a6dd16e31ecbe9ae137a8ead77cb24a5f75302adfc9a9/beartype-0.20.0-py3-none-any.whl",
        "version": "0.20.0"
      },
      "build": {
        "is_direct": false,
        "sha256": "1d61c0887fa860c01971625baae8bdd338e517b836a2f70dd1f7aa3a6b2fc5b5",
        "type": "url",
        "url": "https://files.pythonhosted.org/packages/84/c2/80633736cd183ee4a62107413def345f7e6e3c01563dbca1417363cf957e/build-1.2.2.post1-py3-none-any.whl",
        "version": "1.2.2.post1"
      },
      "certifi": {
        "is_direct": false,
        "sha256": "ca78db4565a652026a4db2bcdf68f2fb589ea80d0be70e03929ed730746b84fe",
        "type": "url",
        "url": "https://files.pythonhosted.org/packages/38/fc/bce832fd4fd99766c04d1ee0eead6b0ec6486fb100ae5e74c1d91292b982/certifi-2025.1.31-py3-none-any.whl",
        "version": "2025.1.31"
      },
      "cffi": {
        "is_direct": false,
        "sha256": "b62ce867176a75d03a665bad002af8e6d54644fad99a3c70905c543130e39d93",
        "type": "url",
        "url": "https://files.pythonhosted.org/packages/b2/d5/da47df7004cb17e4955df6a43d14b3b4ae77737dff8bf7f8f333196717bf/cffi-1.17.1-cp312-cp312-manylinux_2_17_x86_64.manylinux2014_x86_64.whl",
        "version": "1.17.1"
      },
      "charset-normalizer": {
        "is_direct": false,
        "sha256": "bc2722592d8998c870fa4e290c2eec2c1569b87fe58618e67d38b4665dfa680d",
        "type": "url",
        "url": "https://files.pythonhosted.org/packages/3e/a2/513f6cbe752421f16d969e32f3583762bfd583848b763913ddab8d9bfd4f/charset_normalizer-3.4.1-cp312-cp312-manylinux_2_17_x86_64.manylinux2014_x86_64.whl",
        "version": "3.4.1"
      },
      "click": {
        "is_direct": false,
        "sha256": "63c132bbbed01578a06712a2d1f497bb62d9c1c0d329b7903a866228027263b2",
        "type": "url",
        "url": "https://files.pythonhosted.org/packages/7e/d4/7ebdbd03970677812aac39c869717059dbb71a4cfc033ca6e5221787892c/click-8.1.8-py3-none-any.whl",
        "version": "8.1.8"
      },
      "colorama": {
        "is_direct": false,
        "sha256": "4f1d9991f5acc0ca119f9d443620b77f9d6b33703e51011c16baf57afb285fc6",
        "type": "url",
        "url": "https://files.pythonhosted.org/packages/d1/d6/3965ed04c63042e047cb6a3e6ed1a63a35087b6a609aa3a15ed8ac56c221/colorama-0.4.6-py2.py3-none-any.whl",
        "version": "0.4.6"
      },
      "copier": {
        "is_direct": false,
        "sha256": "d7d9851649ad71518f8e868ab761362af0ee9008025a3f85647e9724983cf540",
        "type": "url",
        "url": "https://files.pythonhosted.org/packages/c0/5d/6b8d8816cb49c5ff7a588324210a9c953c1f903278fa99268ace66868689/copier-9.5.0-py3-none-any.whl",
        "version": "9.5.0"
      },
      "copier-template-tester": {
        "is_direct": false,
        "sha256": "818e0d94da0653ce0db51d252b970959832801a79d6431e85e7b08d9dfb6f2e9",
        "type": "url",
        "url": "https://files.pythonhosted.org/packages/e6/04/5825313e0e30c35be17effa2237380f6d88746c845d9875dd4c541f2c53b/copier_template_tester-2.2.0-py3-none-any.whl",
        "version": "2.2.0"
      },
      "corallium": {
        "is_direct": false,
        "sha256": "8f5deddb7b15282099e092399dc4918f23e6d6763ec78de79044e84877a3eed7",
        "type": "url",
        "url": "https://files.pythonhosted.org/packages/56/e3/91024524a6b1091ad561c3c25a0bcd1e7ec293bfd2506877312a235c552f/corallium-2.1.1-py3-none-any.whl",
        "version": "2.1.1"
      },
      "cryptography": {
        "is_direct": false,
        "sha256": "c7362add18b416b69d58c910caa217f980c5ef39b23a38a0880dfd87bdf8cd23",
        "type": "url",
        "url": "https://files.pythonhosted.org/packages/89/33/c1cf182c152e1d262cac56850939530c05ca6c8d149aa0dcee490b417e99/cryptography-44.0.2-cp39-abi3-manylinux_2_34_x86_64.whl",
        "version": "44.0.2"
      },
      "dill": {
        "is_direct": false,
        "sha256": "468dff3b89520b474c0397703366b7b95eebe6303f108adf9b19da1f702be87a",
        "type": "url",
        "url": "https://files.pythonhosted.org/packages/46/d1/e73b6ad76f0b1fb7f23c35c6d95dbc506a9c8804f43dda8cb5b0fa6331fd/dill-0.3.9-py3-none-any.whl",
        "version": "0.3.9"
      },
      "docutils": {
        "is_direct": false,
        "sha256": "dafca5b9e384f0e419294eb4d2ff9fa826435bf15f15b7bd45723e8ad76811b2",
        "type": "url",
        "url": "https://files.pythonhosted.org/packages/8f/d7/9322c609343d929e75e7e5e6255e614fcc67572cfd083959cdef3b7aad79/docutils-0.21.2-py3-none-any.whl",
        "version": "0.21.2"
      },
      "dunamai": {
        "is_direct": false,
        "sha256": "a0906d876e92441793c6a423e16a4802752e723e9c9a5aabdc5535df02dbe041",
        "type": "url",
        "url": "https://files.pythonhosted.org/packages/21/4c/963169386309fec4f96fd61210ac0a0666887d0fb0a50205395674d20b71/dunamai-1.23.0-py3-none-any.whl",
        "version": "1.23.0"
      },
      "erppeek": {
        "is_direct": false,
        "sha256": "5db9f4c758cac025c5c1b96418ef4ec1db604a2f9365ed6f1f893af38ce83ee1",
        "type": "url",
        "url": "https://files.pythonhosted.org/packages/3e/5c/2867e46f03d2fcc3d014a02eeb11ec55f3f8d9eddddcc5578ae8457f84f8/ERPpeek-1.7.1-py2.py3-none-any.whl",
        "version": "1.7.1"
      },
      "freezegun": {
        "is_direct": false,
        "sha256": "bf111d7138a8abe55ab48a71755673dbaa4ab87f4cff5634a4442dfec34c15f1",
        "type": "url",
        "url": "https://files.pythonhosted.org/packages/51/0b/0d7fee5919bccc1fdc1c2a7528b98f65c6f69b223a3fd8f809918c142c36/freezegun-1.5.1-py3-none-any.whl",
        "version": "1.5.1"
      },
      "funcy": {
        "is_direct": false,
        "sha256": "53df23c8bb1651b12f095df764bfb057935d49537a56de211b098f4c79614bb0",
        "type": "url",
        "url": "https://files.pythonhosted.org/packages/d5/08/c2409cb01d5368dcfedcbaffa7d044cc8957d57a9d0855244a5eb4709d30/funcy-2.0-py2.py3-none-any.whl",
        "version": "2.0"
      },
      "github3-py": {
        "is_direct": false,
        "sha256": "a89af7de25650612d1da2f0609622bcdeb07ee8a45a1c06b2d16a05e4234e753",
        "type": "url",
        "url": "https://files.pythonhosted.org/packages/61/ad/2394d4fb542574678b0ba342daf734d4d811768da3c2ee0c84d509dcb26c/github3.py-4.0.1-py3-none-any.whl",
        "version": "4.0.1"
      },
      "h11": {
        "is_direct": false,
        "sha256": "e3fe4ac4b851c468cc8363d500db52c2ead036020723024a109d37346efaa761",
        "type": "url",
        "url": "https://files.pythonhosted.org/packages/95/04/ff642e65ad6b90db43e668d70ffb6736436c7ce41fcc549f4e9472234127/h11-0.14.0-py3-none-any.whl",
        "version": "0.14.0"
      },
      "id": {
        "is_direct": false,
        "sha256": "f1434e1cef91f2cbb8a4ec64663d5a23b9ed43ef44c4c957d02583d61714c658",
        "type": "url",
        "url": "https://files.pythonhosted.org/packages/9f/cb/18326d2d89ad3b0dd143da971e77afd1e6ca6674f1b1c3df4b6bec6279fc/id-1.5.0-py3-none-any.whl",
        "version": "1.5.0"
      },
      "idna": {
        "is_direct": false,
        "sha256": "946d195a0d259cbba61165e88e65941f16e9b36ea6ddb97f00452bae8b1287d3",
        "type": "url",
        "url": "https://files.pythonhosted.org/packages/76/c6/c88e154df9c4e1a2a66ccf0005a88dfb2650c1dffb6f5ce603dfbd452ce3/idna-3.10-py3-none-any.whl",
        "version": "3.10"
      },
      "isort": {
        "is_direct": false,
        "sha256": "2dc5d7f65c9678d94c88dfc29161a320eec67328bc97aad576874cb4be1e9615",
        "type": "url",
        "url": "https://files.pythonhosted.org/packages/c1/11/114d0a5f4dabbdcedc1125dee0888514c3c3b16d3e9facad87ed96fad97c/isort-6.0.1-py3-none-any.whl",
        "version": "6.0.1"
      },
      "jaraco-classes": {
        "is_direct": false,
        "sha256": "f662826b6bed8cace05e7ff873ce0f9283b5c924470fe664fff1c2f00f581790",
        "type": "url",
        "url": "https://files.pythonhosted.org/packages/7f/66/b15ce62552d84bbfcec9a4873ab79d993a1dd4edb922cbfccae192bd5b5f/jaraco.classes-3.4.0-py3-none-any.whl",
        "version": "3.4.0"
      },
      "jaraco-context": {
        "is_direct": false,
        "sha256": "f797fc481b490edb305122c9181830a3a5b76d84ef6d1aef2fb9b47ab956f9e4",
        "type": "url",
        "url": "https://files.pythonhosted.org/packages/ff/db/0c52c4cf5e4bd9f5d7135ec7669a3a767af21b3a308e1ed3674881e52b62/jaraco.context-6.0.1-py3-none-any.whl",
        "version": "6.0.1"
      },
      "jaraco-functools": {
        "is_direct": false,
        "sha256": "ad159f13428bc4acbf5541ad6dec511f91573b90fba04df61dafa2a1231cf649",
        "type": "url",
        "url": "https://files.pythonhosted.org/packages/9f/4f/24b319316142c44283d7540e76c7b5a6dbd5db623abd86bb7b3491c21018/jaraco.functools-4.1.0-py3-none-any.whl",
        "version": "4.1.0"
      },
      "jeepney": {
        "is_direct": false,
        "sha256": "97e5714520c16fc0a45695e5365a2e11b81ea79bba796e26f9f1d178cb182683",
        "type": "url",
        "url": "https://files.pythonhosted.org/packages/b2/a3/e137168c9c44d18eff0376253da9f1e9234d0239e0ee230d2fee6cea8e55/jeepney-0.9.0-py3-none-any.whl",
        "version": "0.9.0"
      },
      "jinja2": {
        "is_direct": false,
        "sha256": "aba0f4dc9ed8013c424088f68a5c226f7d6097ed89b246d7749c2ec4175c6adb",
        "type": "url",
        "url": "https://files.pythonhosted.org/packages/bd/0f/2ba5fbcd631e3e88689309dbe978c5769e883e4b84ebfe7da30b43275c5a/jinja2-3.1.5-py3-none-any.whl",
        "version": "3.1.5"
      },
      "jinja2-ansible-filters": {
        "is_direct": false,
        "sha256": "e1082f5564917649c76fed239117820610516ec10f87735d0338688800a55b34",
        "type": "url",
        "url": "https://files.pythonhosted.org/packages/72/b9/313e8f2f2e9517ae050a692ae7b3e4b3f17cc5e6dfea0db51fe14e586580/jinja2_ansible_filters-1.3.2-py3-none-any.whl",
        "version": "1.3.2"
      },
      "keyring": {
        "is_direct": false,
        "sha256": "552a3f7af126ece7ed5c89753650eec89c7eaae8617d0aa4d9ad2b75111266bd",
        "type": "url",
        "url": "https://files.pythonhosted.org/packages/d3/32/da7f44bcb1105d3e88a0b74ebdca50c59121d2ddf71c9e34ba47df7f3a56/keyring-25.6.0-py3-none-any.whl",
        "version": "25.6.0"
      },
      "manifestoo-core": {
        "is_direct": false,
        "sha256": "6bb09313c2e229333333fc2ff79c7f0ae37cee11455d158fa3aec759a26968bc",
        "type": "url",
        "url": "https://files.pythonhosted.org/packages/67/66/f805237aa59a59e68a966ded4e1726547fad5a2754cf59a44b4a1c39e02b/manifestoo_core-1.8.2-py3-none-any.whl",
        "version": "1.8.2"
      },
      "markdown-it-py": {
        "is_direct": false,
        "sha256": "355216845c60bd96232cd8d8c40e8f9765cc86f46880e43a8fd22dc1a1a8cab1",
        "type": "url",
        "url": "https://files.pythonhosted.org/packages/42/d7/1ec15b46af6af88f19b8e5ffea08fa375d433c998b8a7639e76935c14f1f/markdown_it_py-3.0.0-py3-none-any.whl",
        "version": "3.0.0"
      },
      "markupsafe": {
        "is_direct": false,
        "sha256": "e17c96c14e19278594aa4841ec148115f9c7615a47382ecb6b82bd8fea3ab0c8",
        "type": "url",
        "url": "https://files.pythonhosted.org/packages/f3/f0/89e7aadfb3749d0f52234a0c8c7867877876e0a20b60e2188e9850794c17/MarkupSafe-3.0.2-cp312-cp312-manylinux_2_17_x86_64.manylinux2014_x86_64.whl",
        "version": "3.0.2"
      },
      "mccabe": {
        "is_direct": false,
        "sha256": "6c2d30ab6be0e4a46919781807b4f0d834ebdd6c6e3dca0bda5a15f863427b6e",
        "type": "url",
        "url": "https://files.pythonhosted.org/packages/27/1a/1f68f9ba0c207934b35b86a8ca3aad8395a3d6dd7921c0686e23853ff5a9/mccabe-0.7.0-py2.py3-none-any.whl",
        "version": "0.7.0"
      },
      "mdurl": {
        "is_direct": false,
        "sha256": "84008a41e51615a49fc9966191ff91509e3c40b939176e643fd50a5c2196b8f8",
        "type": "url",
        "url": "https://files.pythonhosted.org/packages/b3/38/89ba8ad64ae25be8de66a6d463314cf1eb366222074cfda9ee839c56a4b4/mdurl-0.1.2-py3-none-any.whl",
        "version": "0.1.2"
      },
      "more-itertools": {
        "is_direct": false,
        "sha256": "6eb054cb4b6db1473f6e15fcc676a08e4732548acd47c708f0e179c2c7c01e89",
        "type": "url",
        "url": "https://files.pythonhosted.org/packages/23/62/0fe302c6d1be1c777cab0616e6302478251dfbf9055ad426f5d0def75c89/more_itertools-10.6.0-py3-none-any.whl",
        "version": "10.6.0"
      },
      "nh3": {
        "is_direct": false,
        "sha256": "a5f77e62aed5c4acad635239ac1290404c7e940c81abe561fd2af011ff59f585",
        "type": "url",
        "url": "https://files.pythonhosted.org/packages/11/a9/1cd3c6964ec51daed7b01ca4686a5c793581bf4492cbd7274b3f544c9abe/nh3-0.2.21-cp38-abi3-manylinux_2_17_x86_64.manylinux2014_x86_64.whl",
        "version": "0.2.21"
      },
      "oca-maintainers-tools": {
        "is_direct": true,
        "rev": "b89f767503be6ab2b11e4f50a7557cb20066e667",
        "sha256": "0nzhl6z6whvnazawb4m0q3aglgin73phcgbsxcbfxa7j2njx38f4",
        "type": "git",
        "url": "https://github.com/OCA/maintainer-tools",
        "version": "0.1.dev1219+gb89f767"
      },
      "outcome": {
        "is_direct": false,
        "sha256": "e771c5ce06d1415e356078d3bdd68523f284b4ce5419828922b6871e65eda82b",
        "type": "url",
        "url": "https://files.pythonhosted.org/packages/55/8b/5ab7257531a5d830fc8000c476e63c935488d74609b50f9384a643ec0a62/outcome-1.3.0.post0-py2.py3-none-any.whl",
        "version": "1.3.0.post0"
      },
      "packaging": {
        "is_direct": false,
        "sha256": "09abb1bccd265c01f4a3aa3f7a7db064b36514d2cba19a2f694fe6150451a759",
        "type": "url",
        "url": "https://files.pythonhosted.org/packages/88/ef/eb23f262cca3c0c4eb7ab1933c3b1f03d021f2c48f54763065b6f0e321be/packaging-24.2-py3-none-any.whl",
        "version": "24.2"
      },
      "pathspec": {
        "is_direct": false,
        "sha256": "a0d503e138a4c123b27490a4f7beda6a01c6f288df0e4a8b79c7eb0dc7b4cc08",
        "type": "url",
        "url": "https://files.pythonhosted.org/packages/cc/20/ff623b09d963f88bfde16306a54e12ee5ea43e9b597108672ff3a408aad6/pathspec-0.12.1-py3-none-any.whl",
        "version": "0.12.1"
      },
      "platformdirs": {
        "is_direct": false,
        "sha256": "73e575e1408ab8103900836b97580d5307456908a03e92031bab39e4554cc3fb",
        "type": "url",
        "url": "https://files.pythonhosted.org/packages/3c/a6/bc1012356d8ece4d66dd75c4b9fc6c1f6650ddd5991e421177d9f8f671be/platformdirs-4.3.6-py3-none-any.whl",
        "version": "4.3.6"
      },
      "plumbum": {
        "is_direct": false,
        "sha256": "9fd0d3b0e8d86e4b581af36edf3f3bbe9d1ae15b45b8caab28de1bcb27aaa7f5",
        "type": "url",
        "url": "https://files.pythonhosted.org/packages/4f/9d/d03542c93bb3d448406731b80f39c3d5601282f778328c22c77d270f4ed4/plumbum-1.9.0-py3-none-any.whl",
        "version": "1.9.0"
      },
      "polib": {
        "is_direct": false,
        "sha256": "1c77ee1b81feb31df9bca258cbc58db1bbb32d10214b173882452c73af06d62d",
        "type": "url",
        "url": "https://files.pythonhosted.org/packages/6b/99/45bb1f9926efe370c6dbe324741c749658e44cb060124f28dad201202274/polib-1.2.0-py2.py3-none-any.whl",
        "version": "1.2.0"
      },
      "pre-commit-po-hooks": {
        "is_direct": false,
        "sha256": "10bd4a15b8abc68a7dfff6eeeb52d02bd67ed8db2ef104a9ba81d2e233037517",
        "type": "url",
        "url": "https://files.pythonhosted.org/packages/a2/ee/f4af5d2efc11be632eeb84c658db2c7f1c5739906d01333943e059fefe01/pre_commit_po_hooks-1.7.3-py2.py3-none-any.whl",
        "version": "1.7.3"
      },
      "prompt-toolkit": {
        "is_direct": false,
        "sha256": "9b6427eb19e479d98acff65196a307c555eb567989e6d88ebbb1b509d9779198",
        "type": "url",
        "url": "https://files.pythonhosted.org/packages/e4/ea/d836f008d33151c7a1f62caf3d8dd782e4d15f6a43897f64480c2b8de2ad/prompt_toolkit-3.0.50-py3-none-any.whl",
        "version": "3.0.50"
      },
      "pycparser": {
        "is_direct": false,
        "sha256": "c3702b6d3dd8c7abc1afa565d7e63d53a1d0bd86cdc24edd75470f4de499cfcc",
        "type": "url",
        "url": "https://files.pythonhosted.org/packages/13/a3/a812df4e2dd5696d1f351d58b8fe16a405b234ad2886a0dab9183fb78109/pycparser-2.22-py3-none-any.whl",
        "version": "2.22"
      },
      "pydantic": {
        "is_direct": false,
        "sha256": "427d664bf0b8a2b34ff5dd0f5a18df00591adcee7198fbd71981054cef37b584",
        "type": "url",
        "url": "https://files.pythonhosted.org/packages/f4/3c/8cc1cc84deffa6e25d2d0c688ebb80635dfdbf1dbea3e30c541c8cf4d860/pydantic-2.10.6-py3-none-any.whl",
        "version": "2.10.6"
      },
      "pydantic-core": {
        "is_direct": false,
        "sha256": "6fb4aadc0b9a0c063206846d603b92030eb6f03069151a625667f982887153e2",
        "type": "url",
        "url": "https://files.pythonhosted.org/packages/8d/f0/49129b27c43396581a635d8710dae54a791b17dfc50c70164866bbf865e3/pydantic_core-2.27.2-cp312-cp312-manylinux_2_17_x86_64.manylinux2014_x86_64.whl",
        "version": "2.27.2"
      },
      "pygments": {
        "is_direct": false,
        "sha256": "9ea1544ad55cecf4b8242fab6dd35a93bbce657034b0611ee383099054ab6d8c",
        "type": "url",
        "url": "https://files.pythonhosted.org/packages/8a/0b/9fcc47d19c48b59121088dd6da2488a49d5f72dacf8262e2790a1d2c7d15/pygments-2.19.1-py3-none-any.whl",
        "version": "2.19.1"
      },
      "pyjwt": {
        "is_direct": false,
        "sha256": "dcdd193e30abefd5debf142f9adfcdd2b58004e644f25406ffaebd50bd98dacb",
        "type": "url",
        "url": "https://files.pythonhosted.org/packages/61/ad/689f02752eeec26aed679477e80e632ef1b682313be70793d798c1d5fc8f/PyJWT-2.10.1-py3-none-any.whl",
        "version": "2.10.1"
      },
      "pylint": {
        "is_direct": false,
        "sha256": "289e6a1eb27b453b08436478391a48cd53bb0efb824873f949e709350f3de018",
        "type": "url",
        "url": "https://files.pythonhosted.org/packages/0d/8b/eef15df5f4e7aa393de31feb96ca9a3d6639669bd59d589d0685d5ef4e62/pylint-3.3.4-py3-none-any.whl",
        "version": "3.3.4"
      },
      "pylint-odoo": {
        "is_direct": false,
        "sha256": "71b260385baa8d9cb65b9046219c58071c2cb8afef5a77ad69b22726286e8abb",
        "type": "url",
        "url": "https://files.pythonhosted.org/packages/c0/fe/15f1e62e0cd63cfe2c88c1cf8a0d71cdf14a4a88f3546a7992ca70f2b139/pylint_odoo-9.3.2-py3-none-any.whl",
        "version": "9.3.2"
      },
      "pylint-plugin-utils": {
        "is_direct": false,
        "sha256": "ae11664737aa2effbf26f973a9e0b6779ab7106ec0adc5fe104b0907ca04e507",
        "type": "url",
        "url": "https://files.pythonhosted.org/packages/af/ee/49d11aee31061bcc1d2726bd8334a2883ddcdbde7d7744ed6b3bd11704ed/pylint_plugin_utils-0.8.2-py3-none-any.whl",
        "version": "0.8.2"
      },
      "pypandoc": {
        "is_direct": false,
        "sha256": "4ededcc76c8770f27aaca6dff47724578428eca84212a31479403a9731fc2b16",
        "type": "url",
        "url": "https://files.pythonhosted.org/packages/61/06/0763e0ccc81754d3eadb21b2cb86cf21bdedc9b52698c2ad6785db7f0a4e/pypandoc-1.15-py3-none-any.whl",
        "version": "1.15"
      },
      "pyproject-dependencies": {
        "is_direct": false,
        "sha256": "f22b86eea56865be2a626f1091e51ab7a307abb5a6c3ec7e3ca64619039ad5c8",
        "type": "url",
        "url": "https://files.pythonhosted.org/packages/da/a0/f1d984db5d054e70dc58e9c4dac42278159c403fce5852b35e6ebd38922a/pyproject_dependencies-1.3.2-py3-none-any.whl",
        "version": "1.3.2"
      },
      "pyproject-hooks": {
        "is_direct": false,
        "sha256": "9e5c6bfa8dcc30091c74b0cf803c81fdd29d94f01992a7707bc97babb1141913",
        "type": "url",
        "url": "https://files.pythonhosted.org/packages/bd/24/12818598c362d7f300f18e74db45963dbcb85150324092410c8b49405e42/pyproject_hooks-1.2.0-py3-none-any.whl",
        "version": "1.2.0"
      },
      "pysocks": {
        "is_direct": false,
        "sha256": "2725bd0a9925919b9b51739eea5f9e2bae91e83288108a9ad338b2e3a4435ee5",
        "type": "url",
        "url": "https://files.pythonhosted.org/packages/8d/59/b4572118e098ac8e46e399a1dd0f2d85403ce8bbaad9ec79373ed6badaf9/PySocks-1.7.1-py3-none-any.whl",
        "version": "1.7.1"
      },
      "python-dateutil": {
        "is_direct": false,
        "sha256": "a8b2bc7bffae282281c8140a97d3aa9c14da0b136dfe83f850eea9a5f7470427",
        "type": "url",
        "url": "https://files.pythonhosted.org/packages/ec/57/56b9bcc3c9c6a792fcbaf139543cee77261f3651ca9da0c93f5c1221264b/python_dateutil-2.9.0.post0-py2.py3-none-any.whl",
        "version": "2.9.0.post0"
      },
      "pyyaml": {
        "is_direct": false,
        "sha256": "80bab7bfc629882493af4aa31a4cfa43a4c57c83813253626916b8c7ada83476",
        "type": "url",
        "url": "https://files.pythonhosted.org/packages/b9/2b/614b4752f2e127db5cc206abc23a8c19678e92b23c3db30fc86ab731d3bd/PyYAML-6.0.2-cp312-cp312-manylinux_2_17_x86_64.manylinux2014_x86_64.whl",
        "version": "6.0.2"
      },
      "questionary": {
        "is_direct": false,
        "sha256": "44174d237b68bc828e4878c763a9ad6790ee61990e0ae72927694ead57bab8ec",
        "type": "url",
        "url": "https://files.pythonhosted.org/packages/ad/3f/11dd4cd4f39e05128bfd20138faea57bec56f9ffba6185d276e3107ba5b2/questionary-2.1.0-py3-none-any.whl",
        "version": "2.1.0"
      },
      "readme-renderer": {
        "is_direct": false,
        "sha256": "2fbca89b81a08526aadf1357a8c2ae889ec05fb03f5da67f9769c9a592166151",
        "type": "url",
        "url": "https://files.pythonhosted.org/packages/e1/67/921ec3024056483db83953ae8e48079ad62b92db7880013ca77632921dd0/readme_renderer-44.0-py3-none-any.whl",
        "version": "44.0"
      },
      "requests": {
        "is_direct": false,
        "sha256": "70761cfe03c773ceb22aa2f671b4757976145175cdfca038c02654d061d6dcc6",
        "type": "url",
        "url": "https://files.pythonhosted.org/packages/f9/9b/335f9764261e915ed497fcdeb11df5dfd6f7bf257d4a6a2a686d80da4d54/requests-2.32.3-py3-none-any.whl",
        "version": "2.32.3"
      },
      "requests-toolbelt": {
        "is_direct": false,
        "sha256": "cccfdd665f0a24fcf4726e690f65639d272bb0637b9b92dfd91a5568ccf6bd06",
        "type": "url",
        "url": "https://files.pythonhosted.org/packages/3f/51/d4db610ef29373b879047326cbf6fa98b6c1969d6f6dc423279de2b1be2c/requests_toolbelt-1.0.0-py2.py3-none-any.whl",
        "version": "1.0.0"
      },
      "rfc3986": {
        "is_direct": false,
        "sha256": "50b1502b60e289cb37883f3dfd34532b8873c7de9f49bb546641ce9cbd256ebd",
        "type": "url",
        "url": "https://files.pythonhosted.org/packages/ff/9a/9afaade874b2fa6c752c36f1548f718b5b83af81ed9b76628329dab81c1b/rfc3986-2.0.0-py2.py3-none-any.whl",
        "version": "2.0.0"
      },
      "rich": {
        "is_direct": false,
        "sha256": "6049d5e6ec054bf2779ab3358186963bac2ea89175919d699e378b99738c2a90",
        "type": "url",
        "url": "https://files.pythonhosted.org/packages/19/71/39c7c0d87f8d4e6c020a393182060eaefeeae6c01dab6a84ec346f2567df/rich-13.9.4-py3-none-any.whl",
        "version": "13.9.4"
      },
      "secretstorage": {
        "is_direct": false,
        "sha256": "f356e6628222568e3af06f2eba8df495efa13b3b63081dafd4f7d9a7b7bc9f99",
        "type": "url",
        "url": "https://files.pythonhosted.org/packages/54/24/b4293291fa1dd830f353d2cb163295742fa87f179fcc8a20a306a81978b7/SecretStorage-3.3.3-py3-none-any.whl",
        "version": "3.3.3"
      },
      "selenium": {
        "is_direct": false,
        "sha256": "ce5d26f1ddc1111641113653af33694c13947dd36c2df09cdd33f554351d372e",
        "type": "url",
        "url": "https://files.pythonhosted.org/packages/2f/a6/fc66ea71ec0769f72abdf15cb9ec9269517abe68a160839383ddff7478f1/selenium-4.29.0-py3-none-any.whl",
        "version": "4.29.0"
      },
      "setuptools": {
        "is_direct": false,
        "sha256": "558e47c15f1811c1fa7adbd0096669bf76c1d3f433f58324df69f3f5ecac4e8f",
        "type": "url",
        "url": "https://files.pythonhosted.org/packages/a9/38/7d7362e031bd6dc121e5081d8cb6aa6f6fedf2b67bf889962134c6da4705/setuptools-75.8.2-py3-none-any.whl",
        "version": "75.8.2"
      },
      "setuptools-odoo": {
        "is_direct": false,
        "sha256": "493fd9a22861da0d645e855a96e3fd8bd27d6690bb9b511fee326bef2a0228f5",
        "type": "url",
        "url": "https://files.pythonhosted.org/packages/29/e5/72e6eec272ffdcfc6b4bbe43a96ea82d030e6ce29d397f91c7bac0b0d1e8/setuptools_odoo-3.3-py2.py3-none-any.whl",
        "version": "3.3"
      },
      "setuptools-scm": {
        "is_direct": false,
        "sha256": "136e2b1d393d709d2bcf26f275b8dec06c48b811154167b0fd6bb002aad17d6d",
        "type": "url",
        "url": "https://files.pythonhosted.org/packages/10/7c/5a9799042320242c383c4485a2771a37d49e8ce2312ca647653d2fd1a7a4/setuptools_scm-8.2.0-py3-none-any.whl",
        "version": "8.2.0"
      },
      "six": {
        "is_direct": false,
        "sha256": "4721f391ed90541fddacab5acf947aa0d3dc7d27b2e1e8eda2be8970586c3274",
        "type": "url",
        "url": "https://files.pythonhosted.org/packages/b7/ce/149a00dd41f10bc29e5921b496af8b574d8413afcd5e30dfa0ed46c2cc5e/six-1.17.0-py2.py3-none-any.whl",
        "version": "1.17.0"
      },
      "sniffio": {
        "is_direct": false,
        "sha256": "2f6da418d1f1e0fddd844478f41680e794e6051915791a034ff65e5f100525a2",
        "type": "url",
        "url": "https://files.pythonhosted.org/packages/e9/44/75a9c9421471a6c4805dbf2356f7c181a29c1879239abab1ea2cc8f38b40/sniffio-1.3.1-py3-none-any.whl",
        "version": "1.3.1"
      },
      "sortedcontainers": {
        "is_direct": false,
        "sha256": "a163dcaede0f1c021485e957a39245190e74249897e2ae4b2aa38595db237ee0",
        "type": "url",
        "url": "https://files.pythonhosted.org/packages/32/46/9cb0e58b2deb7f82b84065f37f3bffeb12413f947f9388e4cac22c4621ce/sortedcontainers-2.4.0-py2.py3-none-any.whl",
        "version": "2.4.0"
      },
      "toml": {
        "is_direct": false,
        "sha256": "806143ae5bfb6a3c6e736a764057db0e6a0e05e338b5630894a5f779cabb4f9b",
        "type": "url",
        "url": "https://files.pythonhosted.org/packages/44/6f/7120676b6d73228c96e17f1f794d8ab046fc910d781c8d151120c3f1569e/toml-0.10.2-py2.py3-none-any.whl",
        "version": "0.10.2"
      },
      "tomlkit": {
        "is_direct": false,
        "sha256": "7a974427f6e119197f670fbbbeae7bef749a6c14e793db934baefc1b5f03efde",
        "type": "url",
        "url": "https://files.pythonhosted.org/packages/f9/b6/a447b5e4ec71e13871be01ba81f5dfc9d0af7e473da256ff46bc0e24026f/tomlkit-0.13.2-py3-none-any.whl",
        "version": "0.13.2"
      },
      "towncrier": {
        "is_direct": false,
        "sha256": "9343209592b839209cdf28c339ba45792fbfe9775b5f9c177462fd693e127d8d",
        "type": "url",
        "url": "https://files.pythonhosted.org/packages/93/1b/2f7b88506e22d9798c139261af4946865c0787cfa345514ca3c70173a9cc/towncrier-24.8.0-py3-none-any.whl",
        "version": "24.8.0"
      },
      "trio": {
        "is_direct": false,
        "sha256": "d8c463f1a9cc776ff63e331aba44c125f423a5a13c684307e828d930e625ba66",
        "type": "url",
        "url": "https://files.pythonhosted.org/packages/c9/55/c4d9bea8b3d7937901958f65124123512419ab0eb73695e5f382521abbfb/trio-0.29.0-py3-none-any.whl",
        "version": "0.29.0"
      },
      "trio-websocket": {
        "is_direct": false,
        "sha256": "df605665f1db533f4a386c94525870851096a223adcb97f72a07e8b4beba45b6",
        "type": "url",
        "url": "https://files.pythonhosted.org/packages/c7/19/eb640a397bba49ba49ef9dbe2e7e5c04202ba045b6ce2ec36e9cadc51e04/trio_websocket-0.12.2-py3-none-any.whl",
        "version": "0.12.2"
      },
      "twine": {
        "is_direct": false,
        "sha256": "a47f973caf122930bf0fbbf17f80b83bc1602c9ce393c7845f289a3001dc5384",
        "type": "url",
        "url": "https://files.pythonhosted.org/packages/7c/b6/74e927715a285743351233f33ea3c684528a0d374d2e43ff9ce9585b73fe/twine-6.1.0-py3-none-any.whl",
        "version": "6.1.0"
      },
      "typing-extensions": {
        "is_direct": false,
        "sha256": "04e5ca0351e0f3f85c6853954072df659d0d13fac324d0072316b67d7794700d",
        "type": "url",
        "url": "https://files.pythonhosted.org/packages/26/9f/ad63fc0248c5379346306f8668cda6e2e2e9c95e01216d2b8ffd9ff037d0/typing_extensions-4.12.2-py3-none-any.whl",
        "version": "4.12.2"
      },
      "uritemplate": {
        "is_direct": false,
        "sha256": "830c08b8d99bdd312ea4ead05994a38e8936266f84b9a7878232db50b044e02e",
        "type": "url",
        "url": "https://files.pythonhosted.org/packages/81/c0/7461b49cd25aeece13766f02ee576d1db528f1c37ce69aee300e075b485b/uritemplate-4.1.1-py2.py3-none-any.whl",
        "version": "4.1.1"
      },
      "urllib3": {
        "is_direct": false,
        "sha256": "1cee9ad369867bfdbbb48b7dd50374c0967a0bb7710050facf0dd6911440e3df",
        "type": "url",
        "url": "https://files.pythonhosted.org/packages/c8/19/4ec628951a74043532ca2cf5d97b7b14863931476d117c471e8e2b1eb39f/urllib3-2.3.0-py3-none-any.whl",
        "version": "2.3.0"
      },
      "wcwidth": {
        "is_direct": false,
        "sha256": "3da69048e4540d84af32131829ff948f1e022c1c6bdb8d6102117aac784f6859",
        "type": "url",
        "url": "https://files.pythonhosted.org/packages/fd/84/fd2ba7aafacbad3c4201d395674fc6348826569da3c0937e75505ead3528/wcwidth-0.2.13-py2.py3-none-any.whl",
        "version": "0.2.13"
      },
      "websocket-client": {
        "is_direct": false,
        "sha256": "17b44cc997f5c498e809b22cdf2d9c7a9e71c02c8cc2b6c56e7c2d1239bfa526",
        "type": "url",
        "url": "https://files.pythonhosted.org/packages/5a/84/44687a29792a70e111c5c477230a72c4b957d88d16141199bf9acb7537a3/websocket_client-1.8.0-py3-none-any.whl",
        "version": "1.8.0"
      },
      "wheel": {
        "is_direct": false,
        "sha256": "708e7481cc80179af0e556bbf0cc00b8444c7321e2700b8d8580231d13017248",
        "type": "url",
        "url": "https://files.pythonhosted.org/packages/0b/2c/87f3254fd8ffd29e4c02732eee68a83a1d3c346ae39bc6822dcbcb697f2b/wheel-0.45.1-py3-none-any.whl",
        "version": "0.45.1"
      },
      "whool": {
        "is_direct": false,
        "sha256": "0a2a0000548f70ddb63717261c104c9bc436c940d434bbecb071eb6eda694238",
        "type": "url",
        "url": "https://files.pythonhosted.org/packages/1b/f4/dd74a15c8874b4bcfaf20b2be148ed37d2d87e1f61fc34dcab0c975e56c7/whool-1.2-py3-none-any.whl",
        "version": "1.2"
      },
      "wsproto": {
        "is_direct": false,
        "sha256": "b9acddd652b585d75b20477888c56642fdade28bdfd3579aa24a4d2c037dd736",
        "type": "url",
        "url": "https://files.pythonhosted.org/packages/78/58/e860788190eba3bcce367f74d29c4675466ce8dddfba85f7827588416f01/wsproto-1.2.0-py3-none-any.whl",
        "version": "1.2.0"
      }
    },
    "targets": {
      "default": {
        "annotated-types": [],
        "appdirs": [],
        "astroid": [],
        "attrs": [],
        "beartype": [],
        "build": ["packaging", "pyproject-hooks"],
        "certifi": [],
        "cffi": ["pycparser"],
        "charset-normalizer": [],
        "click": [],
        "colorama": [],
        "copier": [
          "colorama",
          "dunamai",
          "funcy",
          "jinja2",
          "jinja2-ansible-filters",
          "packaging",
          "pathspec",
          "platformdirs",
          "plumbum",
          "pydantic",
          "pygments",
          "pyyaml",
          "questionary"
        ],
        "copier-template-tester": ["copier", "corallium"],
        "corallium": ["beartype", "rich", "typing-extensions"],
        "cryptography": ["cffi"],
        "dill": [],
        "docutils": [],
        "dunamai": ["packaging"],
        "erppeek": [],
        "freezegun": ["python-dateutil"],
        "funcy": [],
        "github3-py": ["pyjwt", "python-dateutil", "requests", "uritemplate"],
        "h11": [],
        "id": ["requests"],
        "idna": [],
        "isort": [],
        "jaraco-classes": ["more-itertools"],
        "jaraco-context": [],
        "jaraco-functools": ["more-itertools"],
        "jeepney": [],
        "jinja2": ["markupsafe"],
        "jinja2-ansible-filters": ["jinja2", "pyyaml"],
        "keyring": [
          "jaraco-classes",
          "jaraco-context",
          "jaraco-functools",
          "jeepney",
          "secretstorage"
        ],
        "manifestoo-core": ["packaging"],
        "markdown-it-py": ["mdurl"],
        "markupsafe": [],
        "mccabe": [],
        "mdurl": [],
        "more-itertools": [],
        "nh3": [],
        "oca-maintainers-tools": [
          "appdirs",
          "click",
          "docutils",
          "erppeek",
          "freezegun",
          "github3-py",
          "jinja2",
          "manifestoo-core",
          "polib",
          "pygments",
          "pypandoc",
          "pyproject-dependencies",
          "pyyaml",
          "requests",
          "selenium",
          "setuptools-odoo",
          "toml",
          "towncrier",
          "twine",
          "wheel",
          "whool"
        ],
        "outcome": ["attrs"],
        "packaging": [],
        "pathspec": [],
        "platformdirs": [],
        "plumbum": [],
        "polib": [],
        "pre-commit-po-hooks": [],
        "prompt-toolkit": ["wcwidth"],
        "pycparser": [],
        "pydantic": ["annotated-types", "pydantic-core", "typing-extensions"],
        "pydantic-core": ["typing-extensions"],
        "pygments": [],
        "pyjwt": ["cryptography"],
        "pylint": ["astroid", "dill", "isort", "mccabe", "platformdirs", "tomlkit"],
        "pylint-odoo": ["pylint", "pylint-plugin-utils"],
        "pylint-plugin-utils": ["pylint"],
        "pypandoc": [],
        "pyproject-dependencies": ["build", "packaging"],
        "pyproject-hooks": [],
        "pysocks": [],
        "python-dateutil": ["six"],
        "pyyaml": [],
        "questionary": ["prompt-toolkit"],
        "readme-renderer": ["docutils", "nh3", "pygments"],
        "requests": ["certifi", "charset-normalizer", "idna", "urllib3"],
        "requests-toolbelt": ["requests"],
        "rfc3986": [],
        "rich": ["markdown-it-py", "pygments"],
        "secretstorage": ["cryptography", "jeepney"],
        "selenium": [
          "certifi",
          "trio",
          "trio-websocket",
          "typing-extensions",
          "urllib3",
          "websocket-client"
        ],
        "setuptools": [],
        "setuptools-odoo": ["setuptools", "setuptools-scm"],
        "setuptools-scm": ["packaging", "setuptools"],
        "six": [],
        "sniffio": [],
        "sortedcontainers": [],
        "toml": [],
        "tomlkit": [],
        "towncrier": ["click", "jinja2"],
        "trio": ["attrs", "idna", "outcome", "sniffio", "sortedcontainers"],
        "trio-websocket": ["outcome", "trio", "wsproto"],
        "twine": [
          "id",
          "keyring",
          "packaging",
          "readme-renderer",
          "requests",
          "requests-toolbelt",
          "rfc3986",
          "rich",
          "urllib3"
        ],
        "typing-extensions": [],
        "uritemplate": [],
        "urllib3": ["pysocks"],
        "wcwidth": [],
        "websocket-client": [],
        "wheel": [],
        "whool": ["manifestoo-core", "wheel"],
        "wsproto": ["h11"]
      }
    }
  },
  "invalidationHash": "62b8160011fad302416feea846eaea4f5249a2d58c808703d627cd5e2a82b97e"
}
